{
  "context": "endpoint/mfsdealer/createDealerUser",
  "file": "endpoint/mfsdealer/createDealerUser.groovy",
  "type": "groovy",
  "_file": "script/endpoint/mfsdealer/createDealerUser.js",
  "_type": "text/javascript"
}
  
